{
  "definitions": {},
  "$id": "https://gitlab.com/gitlab-org/security-products/gemnasium-db/schema/schema.json",
  "type": "object",
  "title": "SAST Rule Schema",
  "required": [
    "rules"
  ],
  "properties": {
    "rules": {
      "$id": "#/properties/rules",
      "type": "array",
      "title": "Semgrep rules",
      "items": {
        "$id": "#/properties/rules/items",
        "type": "object",
        "title": "A single semgrep rule",
        "required": [
          "metadata"
        ],
        "properties": {
          "metadata": {
            "$id": "#/properties/rules/id/metadata",
            "type": "object",
            "title": " metadata",
            "additionalProperties": true,
            "properties": {
              "cwe": {
                "type": "string",
                "title": "cwe string",
                "$id": "#/properties/rules/id/metadata/cwe",
                "examples": [
                  "CWE-123"
                ],
                "pattern": "^CWE-\\d{1,4}"
              },
              "owasp": {
                "anyOf": [
                  {
                    "type": "string",
                    "title": "OWASP Category string",
                    "$id": "#/properties/rules/id/metadata/owasp",
                    "examples": [
                      "A3 - Sensitive Data Exposure",
                      "A1:2017 - Injection",
                      "A5:2017-Security Misconfiguration"
                    ],
                    "pattern": "^A\\d{1,2}\\:*(\\d{4})*\\s*-*.+$"
                  },
                  {
                    "type": "array",
                    "items": {
                      "$type": "string",
                      "title": "OWASP Category string",
                      "$id": "#/properties/rules/id/metadata/owasp",
                      "pattern": "^A\\d{1,2}\\:*(\\d{4})*\\s*-*.+$"
                    }                  
                  }
                ]
              }
            }
          }
        }
      }
    }
  }
}
